{
   "run_name":"somerun5b",
   "project_name":"stroke_predictor205_bd1",
   "pipeline_name":"feature_engg_and_classifier_pipeline",
   "pipeline_version":5,
    "target_environment": "DEV",

   "run_parameters":{
      "driver_memory":"512m",
      "executor_memory":"512m",
      "executor_cores":"1",
      "num_executors":1,

      "model_param_numTrees":"25",
      "model_param_maxDepth":"25"
   }
}
