{
   "name":"stroke_predictor205_bd1",
   "target_environment":"DEV",
   "components":{
      "model_evaluation":{
         "build_version" : 3,
         "args":[
            "--driver_memory","512m",
            "--executor_memory","512m",
            "--executor_cores",1,
            "--num_executors",1,
            "--run_name","somerun5b",
            "--project_name","stroke_predictor205_bd1",
            "--pipeline_name","feature_engg_and_classifier_pipeline",
            "--pipeline_version",5
         ]
      }
   }
}
