{
  "name":"{{PROJECT_NAME}}",
  "target_environment":"DEV",
  "components":{
    "{{BD_COMPONENT_NAME_1}}":{
      "build_version":1,
      "args":[
        "--driver_memory", "512m",
        "--executor_memory", "512m",
        "--executor_cores", 1,
        "--num_executors", 1,
        "--param-name-1", "param-value",
        "--param-name-2", "param-value"
      ]
    }
  },
  "pipelines":{
    "{{BD_PIPELINE_NAME_1}}":{
      "components":{
        "{{PIPELINE_JOB_COMPONENT_NAME_1}}":{
          "build_version":1,
          "args":[
            "--model_param_1",
            {
              "inputValue":"model_param_1"
            }
          ]
        }
      }
    }
  }
}