{
  "name":"sprojoke",
  "target_environment":"DEV",
  "pipelines":{
    "feature_engg_and_classifier_pipeline":{
      "components":{
        "string_indexer":{
          "build_version":1,
          "args":[
          ]
        },
        "vector_assembler":{
          "build_version":1,
          "args":[
          ]
        },
        "one_hot_encoder":{
          "build_version":1,
          "args":[
          ]
        }
      }
    }
  }
}
