{
    "experiments": [
    {
        "project_name": "stroke_predictor205_bd1",
        "pipeline_name": "feature_engg_and_classifier_pipeline",
        "pipeline_version": 4,
        "run_name": "somerun4a"
    },
    {
        "project_name": "stroke_predictor205_bd1",
        "pipeline_version": 5,
        "pipeline_name": "feature_engg_and_classifier_pipeline",
        "run_name": "somerun5a"
    },
    {
        "project_name": "stroke_predictor205_bd1",
        "pipeline_version": 5,
        "pipeline_name": "feature_engg_and_classifier_pipeline",
        "run_name": "somerun5b"
    }
    ]
}
